<?xml version="1.0" encoding="utf-8"?>
<!-- Generator: Adobe Illustrator 20.1.0, SVG Export Plug-In . SVG Version: 6.00 Build 0)  -->
<svg version="1.1" id="Layer_1" xmlns="http://www.w3.org/2000/svg" xmlns:xlink="http://www.w3.org/1999/xlink" x="0px" y="0px"
	 viewBox="0 0 127.2 46.8" style="enable-background:new 0 0 127.2 46.8;" xml:space="preserve">
<style type="text/css">
	.st0{fill:#C61A2B;}
	.st1{fill:#FFFFFF;}
	.st2{fill:#1878C6;}
	.st3{fill:url(#SVGID_1_);}
	.st4{fill:url(#SVGID_2_);}
	.st5{fill:#2885D1;}
</style>
<g>
	<g>
		<path class="st0" d="M60.7,28.1C59.4,28.7,58,29,56.6,29c-3.4,0-5.8-2.3-5.8-5.6s2.3-5.6,5.7-5.6c1.3,0,2.7,0.4,4,1.1l-0.8,1.4
			c-1.1-0.6-2-0.9-3-0.9c-2.3,0-3.8,1.6-3.8,3.9s1.6,3.9,3.9,3.9c0.7,0,1.3-0.1,1.9-0.4v-2.5h-2.4v-1.6h4.4
			C60.7,22.7,60.7,28.1,60.7,28.1z"/>
		<path class="st1" d="M63.8,18h2.1l3.5,4.8l3.5-4.8h2v10.8h-2V21l-3,4.1h-1.2l-3-4.1v7.8h-2L63.8,18L63.8,18z"/>
		<path class="st1" d="M83.3,17.9c3.3,0,5.6,2.3,5.6,5.6s-2.3,5.6-5.6,5.6c-3.3,0-5.6-2.3-5.6-5.6S80,17.9,83.3,17.9z M83.3,27.3
			c2,0,3.4-1.6,3.4-3.9s-1.4-3.9-3.4-3.9s-3.4,1.6-3.4,3.9S81.3,27.3,83.3,27.3z"/>
		<path class="st1" d="M96.5,28.8h-2L90.1,18h2.2l3.2,8.2l3.2-8.2h2.2L96.5,28.8z"/>
		<path class="st1" d="M103.1,18h2.1v10.8h-2.1V18z"/>
		<path class="st1" d="M108.7,18h7.3v1.6h-5.1v2.9h4.7v1.6h-4.7v3.1h5.5v1.6h-7.6L108.7,18L108.7,18z"/>
		<path class="st1" d="M122.5,17.9c1.2,0,2.4,0.3,3.7,0.8l-0.5,1.6c-1.1-0.4-2.1-0.7-3-0.7c-1.2,0-2,0.5-2,1.4
			c0,2.3,5.9,0.8,5.9,4.9c0,1.9-1.6,3.1-4.1,3.1c-1.2,0-2.6-0.3-4.1-0.9l0.5-1.6c1.2,0.5,2.4,0.8,3.4,0.8c1.3,0,2.1-0.6,2.1-1.5
			c0-2.4-6-0.9-6-4.9C118.6,19.1,120.2,17.9,122.5,17.9z"/>
	</g>
	<g>
		<path class="st2" d="M40.3,27.6c-0.5,0-1,0.3-1.2,0.8c-0.5,1.4-1.9,2.7-3.6,2.7s-3.1-1.2-3.6-2.7c-0.2-0.5-0.6-0.8-1.2-0.8h-1.7
			c-0.7,0-1.2,0.6-1.2,1.2l0,10.4c0,0,1,0.3,3.1,2.5c1.6,1.7,2.8,2.2,4.3,3.3c0.8,0.5,2.5,0.4,3,0.6c2.2,0.8,5.1-1.9,5.1-4.1V28.8
			c0-0.7-0.6-1.2-1.2-1.2H40.3z"/>
		<linearGradient id="SVGID_1_" gradientUnits="userSpaceOnUse" x1="39.5077" y1="29.8999" x2="31.3591" y2="41.9988">
			<stop  offset="0" style="stop-color:#215CA3;stop-opacity:0"/>
			<stop  offset="1" style="stop-color:#04376F;stop-opacity:0.8"/>
			<stop  offset="1" style="stop-color:#03005B;stop-opacity:0.8"/>
		</linearGradient>
		<path class="st3" d="M40.3,27.6c-0.5,0-1,0.3-1.2,0.8c-0.5,1.4-1.9,2.7-3.6,2.7s-3.1-1.2-3.6-2.7c-0.2-0.5-0.6-0.8-1.2-0.8h-1.7
			c-0.7,0-1.2,0.6-1.2,1.2l0,9.5c0,0,1.1,1,3.2,3.2c1.6,1.7,2.5,1.9,4,3c0.8,0.5,3,1.1,3.5,1.2c2.3,0.3,4.7-2,4.8-4.2V28.8
			c0-0.7-0.6-1.2-1.2-1.2H40.3z"/>
		<path class="st2" d="M10.5,20.5l-8.6-8.8C0.1,9.8,0,5.3,2.8,2.6l0,0c1.8-1.5,2.4-2.1,5.1-2c1.5,0,3,0.2,4,1.2l9,9L10.5,20.5z"/>
		<linearGradient id="SVGID_2_" gradientUnits="userSpaceOnUse" x1="7.7878" y1="16.5796" x2="13.8536" y2="0.4041">
			<stop  offset="0" style="stop-color:#215CA3;stop-opacity:0"/>
			<stop  offset="1" style="stop-color:#032B53;stop-opacity:0.8"/>
		</linearGradient>
		<path class="st4" d="M10.5,20.5L2,11.7C0.1,9.8,0.1,5.3,2.8,2.6l0,0c1.1-1.1,2-1.6,3.3-2c0.3-0.1,4.4-0.2,5.8,1.2l9,9L10.5,20.5z"
			/>
		<path class="st0" d="M32.9,42.4L3.5,13.1C2.4,11.9,1.5,10.5,1,9C0.8,8.5,0.7,8.1,0.6,7.6c0,0.1,0.2,22.4,0.2,22.4s-0.4,3.1,2,6.3
			c2.4,3.2,6.3,7.1,6.3,7.1s2,2.4,5.6,2.5c4,0.1,18,0.7,23.5,0.1c0.4,0,1.2-0.2,2-0.7c-0.6,0.2-0.7,0.2-1.2,0.2
			C36.8,45.3,34.7,44.2,32.9,42.4z"/>
		<g>
			<circle class="st1" cx="12.8" cy="40.8" r="1.1"/>
			<circle class="st1" cx="15.8" cy="37.9" r="1.1"/>
			<circle class="st1" cx="18.7" cy="34.9" r="1.1"/>
		</g>
		<g>
			<path class="st5" d="M33.2,19.8c0.5-0.5,0.6-1.2,0.3-1.8c-0.8-1.7-0.6-3.8,0.9-5.3s3.6-1.7,5.3-0.9c0.6,0.3,1.3,0.2,1.8-0.3
				L43,10c0.6-0.6,0.6-1.6,0-2.2c-1.7-1.7-5.1-5.1-7-6.6c-1-0.8-3.4-0.9-3.4-0.9S13.1,0,6.6,0.5c-0.2,0-0.7,0.1-1.1,0.2
				c0.4,0.1,2.3-0.5,5.6,2.3c5.3,4.4,14.8,14.7,18.2,18.4c0.6,0.6,1.6,0.7,2.2,0L33.2,19.8z"/>
			<g>
				<circle class="st1" cx="27.4" cy="11.9" r="1.1"/>
				<circle class="st1" cx="30.4" cy="8.9" r="1.1"/>
				<circle class="st1" cx="33.5" cy="5.8" r="1.1"/>
			</g>
			<g>
				<g id="star-rate_2_">
					<polygon class="st1" points="22.8,0.6 20.3,1 22.6,2.2 22.1,4.6 23.9,2.9 26.2,4 25,1.7 26.4,0.4 22.8,0.4 					"/>
				</g>
			</g>
		</g>
		<g>
			<g id="star-rate_1_">
				<polygon class="st1" points="9.4,30.9 11.9,30.7 9.8,29.4 10.3,27 8.5,28.6 6.2,27.4 7.3,29.7 5.5,31.4 7.9,31.1 8.9,33.4 				
					"/>
			</g>
		</g>
	</g>
</g>
</svg>
